\relax 
\@writefile{toc}{\contentsline {section}{\numberline {1}Introducci\IeC {\'o}n}{1}}
\@writefile{toc}{\contentsline {section}{\numberline {2}Optimizaci\IeC {\'o}n de funciones}{1}}
\@writefile{toc}{\contentsline {subsection}{\numberline {2.1}Funci\IeC {\'o}n 1}{1}}
\@writefile{toc}{\contentsline {subsection}{\numberline {2.2}Funci\IeC {\'o}n 2}{2}}
